%YAML 1.1
%TAG !u! tag:unity3d.com,2011:
--- !u!1045 &1
EditorBuildSettings:
  m_ObjectHideFlags: 0
  serializedVersion: 2
  m_Scenes:
  - enabled: 1
    path: Assets/OutlineTests/test.unity
    guid: a7e54a0b760729248a55e5aacfd1e0f0
  m_configObjects: {}
